HW1/testbench.vcd
$date
	Sun Apr 12 17:17:37 2020
$end
$version
	Icarus Verilog
$end
$timescale
	1ps
$end
$scope module testbench $end
$var wire 4 ! O [3:0] $end
$var reg 4 " I [3:0] $end
$scope module uut $end
$var wire 4 # I [3:0] $end
$var wire 4 $ O [3:0] $end
$upscope $end
$upscope $end
$enddefinitions $end
#0
$dumpvars
b0 $
b0 #
b0 "
b0 !
$end
#20000
b1111 !
b1111 $
b1 "
b1 #
#40000
b1110 !
b1110 $
b10 "
b10 #
#60000
b1101 !
b1101 $
b11 "
b11 #
#80000
b1100 !
b1100 $
b100 "
b100 #
#100000
b1011 !
b1011 $
b101 "
b101 #
#120000
b1010 !
b1010 $
b110 "
b110 #
#140000
b1001 !
b1001 $
b111 "
b111 #
#160000
b1000 !
b1000 $
b1000 "
b1000 #
#180000
b111 !
b111 $
b1001 "
b1001 #
#200000
b110 !
b110 $
b1010 "
b1010 #
#220000
b101 !
b101 $
b1011 "
b1011 #
#240000
b100 !
b100 $
b1100 "
b1100 #
#260000
b11 !
b11 $
b1101 "
b1101 #
#280000
b10 !
b10 $
b1110 "
b1110 #
#300000
b1 !
b1 $
b1111 "
b1111 #
